{
    "application": {
        "id": "",
        "title": "com.sdogu.Routing_Template.Routing_Template",
        "type": "SAP_UI5_Component",
        "componentUrl": "/",
        "appUrl": "#Routing_Template-Display",
        "navigationComponentName": "com.sdogu.Routing_Template",
        "intentSemanticObject": "Routing_Template",
        "intentAction": "Display",
        "html5ApplicationName": "routingtemplate",
        "HCPParentApplicationName": ""
    },
    "assignment": {
        "groups": [
            "5df8b5ce-4525-4e86-9e7c-c8c4df2f37dd"
        ],
        "contentPackages": [
            "00000000-0000-2222-0000-00000000"
        ],
        "categories": []
    },
    "tile": {
        "type": "StaticTile",
        "title": "Doehler",
        "subtitle": "Taste",
        "searchKeywords": "Doehler,Taste",
        "displayIconUrl": "sap-icon://task",
        "displayInfoText": "",
        "size": "1x1",
        "serviceURL": "",
        "refreshInterval": ""
    }
}